<?xml version="1.0" standalone="no"?>
<!DOCTYPE svg PUBLIC "-//W3C//DTD SVG 20010904//EN"
 "http://www.w3.org/TR/2001/REC-SVG-20010904/DTD/svg10.dtd">
<svg version="1.0" xmlns="http://www.w3.org/2000/svg"
 width="512.000000pt" height="512.000000pt" viewBox="0 0 512.000000 512.000000"
 preserveAspectRatio="xMidYMid meet">
<metadata>
Created by potrace 1.11, written by Peter Selinger 2001-2013
</metadata>
<g transform="translate(0.000000,512.000000) scale(0.100000,-0.100000)"
fill="#000000" stroke="none">
<path d="M1755 3380 c-38 -9 -87 -24 -107 -33 -21 -9 -38 -14 -38 -11 0 6
-122 -60 -165 -89 -117 -80 -222 -199 -289 -329 l-43 -83 -102 0 c-55 -1 -101
1 -101 3 0 9 57 102 94 152 49 68 165 185 226 227 79 55 197 109 256 118 21 4
48 8 59 10 11 2 24 4 28 4 5 1 5 6 2 12 -7 10 -68 8 -125 -5 -38 -9 -94 -20
-102 -21 -3 0 -10 -3 -14 -7 -4 -5 -13 -8 -20 -8 -20 0 -141 -59 -201 -97 -60
-38 -186 -158 -224 -213 -13 -19 -42 -66 -64 -105 l-41 -70 -67 0 c-63 -1 -67
0 -61 20 17 52 95 165 168 240 101 104 195 171 336 243 36 18 39 21 15 16 -16
-3 -41 -8 -54 -11 -52 -9 -149 -46 -211 -80 -152 -83 -276 -213 -355 -374
l-28 -56 -258 1 c-143 1 -259 -2 -259 -6 0 -5 10 -8 23 -9 97 -2 467 -17 479
-18 4 -1 1 -20 -8 -43 -21 -60 -26 -101 -27 -213 -1 -93 8 -198 18 -215 2 -3
6 -17 8 -31 11 -56 70 -190 116 -259 117 -179 274 -294 474 -350 44 -12 81
-19 84 -16 3 3 14 1 24 -5 15 -7 19 -6 19 5 0 8 -10 18 -22 21 -42 13 -180 86
-242 127 -73 49 -203 178 -242 239 -86 137 -124 257 -129 414 -3 61 0 128 5
150 4 22 11 58 14 79 4 22 12 51 19 65 11 24 17 26 77 26 74 -1 72 3 45 -90
-22 -76 -28 -303 -10 -373 41 -154 117 -285 234 -402 133 -134 255 -205 443
-260 104 -30 218 -40 218 -20 0 9 -14 14 -70 24 -133 25 -283 89 -386 166
-155 116 -253 261 -304 450 -37 139 -33 362 9 473 l11 28 102 -4 c57 -2 102
-7 102 -11 -16 -86 -26 -134 -29 -146 -4 -11 -20 -15 -69 -14 -36 0 -71 -3
-78 -8 -16 -10 -17 -10 124 -17 15 -1 18 -11 17 -63 -1 -79 8 -148 27 -218 8
-30 16 -59 17 -65 2 -5 17 -40 34 -77 64 -137 160 -251 294 -350 38 -28 194
-106 226 -113 10 -2 56 -12 103 -23 264 -58 563 27 763 217 65 61 148 173 180
242 l26 56 161 -4 161 -5 -5 29 c-4 27 -11 85 -21 203 -3 30 -7 75 -10 100 -2
25 -7 81 -11 125 -4 44 -8 91 -9 105 -2 14 -3 39 -4 55 l-1 30 -118 0 c-128
-1 -142 1 -142 20 0 15 -38 87 -86 163 -76 119 -254 263 -386 314 -29 11 -95
31 -146 44 -112 29 -251 31 -357 4z m410 -79 c43 -12 98 -30 120 -41 23 -11
47 -20 53 -20 7 0 12 -4 12 -9 0 -5 9 -13 20 -16 37 -12 169 -124 215 -183 41
-51 115 -171 115 -186 0 -3 -29 -6 -65 -6 -43 0 -65 -4 -65 -12 0 -6 3 -9 6
-5 8 8 64 -13 64 -24 0 -13 -26 -69 -47 -100 -18 -26 -90 -141 -128 -203 -11
-18 -57 -92 -102 -164 -46 -72 -83 -132 -83 -134 0 -7 306 -3 317 5 6 4 41 52
77 107 36 55 68 100 72 100 3 0 3 -12 0 -27 -4 -16 -8 -39 -11 -52 -23 -122
-98 -255 -204 -362 -50 -49 -174 -145 -193 -149 -4 0 -25 -8 -45 -17 -21 -9
-40 -17 -43 -18 -3 0 -10 -3 -16 -7 -6 -4 -26 -10 -44 -13 -18 -3 -36 -7 -39
-9 -29 -18 -207 -25 -296 -13 -163 23 -319 102 -440 222 -78 77 -107 117 -155
214 -57 115 -80 210 -84 353 l-2 48 98 -6 c54 -3 106 -7 116 -8 14 -2 18 -17
22 -77 3 -41 9 -79 12 -84 4 -7 -13 -10 -48 -9 -55 1 -73 -16 -23 -22 74 -10
88 -16 95 -36 13 -43 75 -134 126 -186 48 -49 157 -132 173 -132 4 0 21 -6 38
-14 98 -44 217 -55 310 -29 31 8 57 19 57 24 0 4 -13 4 -28 0 -32 -10 -191 -7
-237 3 -69 15 -179 79 -239 140 -49 49 -126 165 -126 190 0 6 57 1 112 -9 42
-8 42 -11 12 -97 l-13 -38 158 0 158 0 19 48 c10 26 19 49 19 52 8 34 41 90
54 91 9 0 71 1 138 1 l122 0 26 77 c14 42 25 81 25 87 0 8 -40 11 -125 10 -78
-1 -125 3 -125 9 0 6 9 29 20 53 16 34 24 42 47 43 15 0 87 0 159 0 l132 0 29
85 c17 46 27 86 24 88 -3 1 -211 2 -461 1 -250 -1 -458 0 -463 3 -13 6 97 113
153 147 49 30 108 54 174 72 11 4 69 7 128 7 73 1 101 4 90 11 -25 14 -38 15
-132 15 -135 0 -177 -9 -280 -60 -72 -37 -126 -80 -176 -143 l-42 -52 -131 0
c-72 0 -131 1 -131 3 0 12 39 85 73 135 43 65 109 135 177 190 52 41 194 117
219 117 10 0 21 3 25 8 4 4 11 7 14 8 4 0 32 6 62 12 82 18 97 19 190 16 47
-1 121 -12 165 -23z m-699 -536 c-3 -5 -15 -40 -26 -77 -12 -38 -25 -68 -28
-69 -10 -1 -194 -1 -214 0 -15 1 -17 8 -12 39 3 20 8 46 12 57 8 25 9 32 11
48 1 11 29 14 131 13 83 -1 128 -5 126 -11z m350 -8 c4 -4 -48 -132 -57 -137
-11 -8 -264 -4 -263 4 1 3 5 22 8 41 4 19 14 51 22 70 l15 36 136 -6 c75 -3
138 -6 139 -8z m-196 -211 c25 -2 64 -4 87 -5 l41 -1 -22 -72 -22 -73 -98 -1
c-111 -2 -112 -1 -119 93 -6 68 -2 73 46 67 23 -3 62 -7 87 -8z"/>
<path d="M3203 2838 c-2 -5 1 -8 7 -8 5 0 19 -14 30 -32 26 -43 21 -137 -13
-243 -24 -76 -94 -312 -103 -346 -4 -15 12 -16 168 -13 230 4 291 14 404 65
169 75 257 199 257 362 0 84 -29 152 -80 187 -33 22 -45 24 -187 27 -345 8
-478 8 -483 1z m468 -200 c4 -6 5 -27 4 -49 -4 -62 -78 -160 -133 -174 -13 -3
-27 -4 -29 -1 -6 5 26 106 37 121 5 6 9 13 9 18 4 46 27 100 45 107 21 8 55
-4 67 -22z"/>
<path d="M4130 2828 c0 -6 3 -9 6 -5 3 3 19 1 35 -5 53 -18 58 -9 -239 -439
-67 -98 -122 -179 -122 -180 0 -2 72 -4 160 -4 131 0 163 3 170 15 16 27 165
209 171 210 3 0 6 -33 6 -72 1 -40 1 -91 2 -113 l1 -40 161 0 161 0 -5 45 c-3
25 -7 63 -10 85 -3 22 -8 65 -11 95 -4 30 -9 78 -12 105 -4 28 -8 59 -9 70 -1
11 -5 56 -10 100 -5 44 -9 87 -10 95 -1 8 -2 22 -3 30 -2 13 -34 16 -222 18
-162 1 -220 -1 -220 -10z"/>
</g>
</svg>
